example/output.vcd
$date
	Mon Aug 28 06:22:28 2023

$end
$version
	Icarus Verilog
$end
$timescale
	1ps
$end
$scope module test_eth_mac $end
$var wire 64 ! rx_axis_tdata [63:0] $end
$var wire 8 " rx_axis_tkeep [7:0] $end
$var wire 1 # rx_axis_tlast $end
$var wire 97 $ rx_axis_tuser [96:0] $end
$var wire 1 % rx_axis_tvalid $end
$var wire 1 & rx_clk $end
$var wire 96 ' rx_ptp_time [95:0] $end
$var wire 1 ( rx_rst $end
$var wire 64 ) tx_axis_tdata [63:0] $end
$var wire 8 * tx_axis_tkeep [7:0] $end
$var wire 1 + tx_axis_tlast $end
$var wire 1 , tx_axis_tready $end
$var wire 17 - tx_axis_tuser [16:0] $end
$var wire 1 . tx_axis_tvalid $end
$var wire 1 / tx_clk $end
$var wire 96 0 tx_ptp_time [95:0] $end
$var wire 96 1 tx_ptp_ts [95:0] $end
$var wire 16 2 tx_ptp_ts_tag [15:0] $end
$var wire 1 3 tx_ptp_ts_valid $end
$var wire 1 4 tx_rst $end
$upscope $end
$scope module iverilog_dump $end
$upscope $end
$scope module cocotb_iverilog_dump $end
$upscope $end
$scope module test_eth_mac $end
$upscope $end
$enddefinitions $end
#0
$dumpvars
04
03
b0000000000000000 2
b000000000000000000000000000000000000000000000000000000000000000000000000000000000000000000000000 1
b000000000000000000000000000000000000000000000000000000000000000000000000000000000000000000000000 0
1/
0.
bxxxxxxxxxxxxxxxxx -
1,
0+
bxxxxxxxx *
bxxxxxxxxxxxxxxxxxxxxxxxxxxxxxxxxxxxxxxxxxxxxxxxxxxxxxxxxxxxxxxxx )
0(
b000000000000000000000000000000000000000000000000000000000000000000000000000000000000000000000000 '
1&
0%
b0000000000000000000000000000000000000000000000000000000000000000010110111010100011100011000000000 $
0#
b11111111 "
b1111111111111110111111100000000000000000000000000000000000000000 !
$end
#3103
1%
0&
b000000000000000000000000000000000000000000000000000000000000000001100001000000000111101010000000 '
0/
#6206
1/
b000000000000000000000000000000000000000000000000000000000000000000000000000001100011010010111100 '
1&
0%
1(
b0000000000000000000000000000000000000000000000000000000000000000 )
b00000000 *
0,
b00000000000000000 -
b000000000000000000000000000000000000000000000000000000000000000000000000000001100011010010111100 0
14
#9309
0(
1%
0&
b000000000000000000000000000000000000000000000000000000000000000001100001000000000111101010000000 '
0/
#12412
1/
b000000000000000000000000000000000000000000000000000000000000000000000000000011000110100101111000 '
1&
0%
b000000000000000000000000000000000000000000000000000000000000000000000000000011000110100101111000 0
#15515
1%
0&
b000000000000000000000000000000000000000000000000000000000000000001100001000010111010001100000000 '
0/
#18618
1/
b000000000000000000000000000000000000000000000000000000000000000000000000000100101001111000110101 '
1&
b000000000000000000000000000000000000000000000000000000000000000000000000000100101001111000110101 0
04
#21721
0&
b000000000000000000000000000000000000000000000000000000000000000001100001000001000110100110000000 '
0/
#24824
1/
b000000000000000000000000000000000000000000000000000000000000000000000000000110001101001011110001 '
1&
b000000000000000000000000000000000000000000000000000000000000000000000000000110001101001011110001 0
1,
b1010111110101110101011100000000000000000000000000000000000000000 !
#27927
b0111111101111110011111011000000000000000000000000000000000000000 !
0&
b000000000000000000000000000000000000000000000000000000000000000001100000111100011100101110000000 '
0/
#31030
1/
b000000000000000000000000000000000000000000000000000000000000000000000000000111110000011110101110 '
1&
b1001111110011110100111100000000000000000000000000000000000000000 !
b000000000000000000000000000000000000000000000000000000000000000000000000000111110000011110101110 0
#34133
b1001011110010110100101100000000000000000000000000000000000000000 !
0&
b000000000000000000000000000000000000000000000000000000000000000001100000111100011100101110000000 '
0/
#37236
1/
b000000000000000000000000000000000000000000000000000000000000000000000000001001010011110001101010 '
1&
b1000111110001110100011100000000000000000000000000000000000000000 !
b000000000000000000000000000000000000000000000000000000000000000000000000001001010011110001101010 0
0%
b11111111 *
b0000011100000110000001010000010000000011000000100000000100000000 )
1.
#40339
1%
0&
b000000000000000000000000000000000000000000000000000000000000000001100001101111101001011110000000 '
0/
#43442
1/
b000000000000000000000000000000000000000000000000000000000000000000000000001010110111000100100110 '
1&
b0000111100001110000011010000110000001011000010100000100100001000 )
b000000000000000000000000000000000000000000000000000000000000000000000000001010110111000100100110 0
#46545
0&
b000000000000000000000000000000000000000000000000000000000000000001100001001001010001010100000000 '
0/
b1010101010000001001000000000000000000000000000000000000000000000 !
#49648
b1111111111111110111111100000000000000000000000000000000000000000 !
1/
b000000000000000000000000000000000000000000000000000000000000000000000000001100011010010111100011 '
1&
b000000000000000000000000000000000000000000000000000000000000000000000000001100011010010111100011 0
b0001011100010110000101010001010000010011000100100001000100010000 )
#52751
0&
b000000000000000000000000000000000000000000000000000000000000000001100100001010110011000100000000 '
0/
#55854
1/
b000000000000000000000000000000000000000000000000000000000000000000000000001101111101101010011111 '
1&
b0001111100011110000111010001110000011011000110100001100100011000 )
b000000000000000000000000000000000000000000000000000000000000000000000000001101111101101010011111 0
b000000000000000000000000000000000000000000000000000000000000000000000000001100011010010111100011 1
13
#58957
0&
b000000000000000000000000000000000000000000000000000000000000000001100110001110111111100010000000 '
0/
#62060
1/
b000000000000000000000000000000000000000000000000000000000000000000000000001111100000111101011100 '
1&
03
b000000000000000000000000000000000000000000000000000000000000000000000000001111100000111101011100 0
b0010011100100110001001010010010000100011001000100010000100100000 )
0%
#65163
1%
0&
b000000000000000000000000000000000000000000000000000000000000000001100101100000110100000010000000 '
0/
#68266
1/
b000000000000000000000000000000000000000000000000000000000000000000000000010001000100010000011000 '
1&
0%
b0010111100101110001011010010110000101011001010100010100100101000 )
b000000000000000000000000000000000000000000000000000000000000000000000000010001000100010000011000 0
#71369
1%
0&
b000000000000000000000000000000000000000000000000000000000000000001100100010111000111111110000000 '
0/
#74472
1/
b000000000000000000000000000000000000000000000000000000000000000000000000010010100111100011010100 '
1&
b000000000000000000000000000000000000000000000000000000000000000000000000010010100111100011010100 0
b0011011100110110001101010011010000110011001100100011000100110000 )
b0001011100010110000101010010000000000000000000000000000000000000 !
#77575
b0010011100100110001001010100000000000000000000000000000000000000 !
0&
b000000000000000000000000000000000000000000000000000000000000000001100000111100011100101110000000 '
0/
#80678
1/
b000000000000000000000000000000000000000000000000000000000000000000000000010100001010110110010001 '
1&
b1100111111001110110011100000000000000000000000000000000000000000 !
b1011000011101100011111111110111000111011001110100011100100111000 )
b000000000000000000000000000000000000000000000000000000000000000000000000010100001010110110010001 0
1+
#83781
b0111011101110110011101011000000000000000000000000000000000000000 !
0&
b000000000000000000000000000000000000000000000000000000000000000001100100011010010101111000000000 '
0/
0%
#86884
1%
1/
b000000000000000000000000000000000000000000000000000000000000000000000000010101101110001001001101 '
1&
0+
b000000000000000000000000000000000000000000000000000000000000000000000000010101101110001001001101 0
0.
#89987
0&
b000000000000000000000000000000000000000000000000000000000000000001100101000010101001101110000000 '
0/
0%
b0101101011111110010111110000000000000000000000000000000000000000 !
#93090
b1001111110011110100111100000000000000000000000000000000000000000 !
1%
1/
b000000000000000000000000000000000000000000000000000000000000000000000000010111010001011100001010 '
1&
b000000000000000000000000000000000000000000000000000000000000000000000000010111010001011100001010 0
#96193
0&
b000000000000000000000000000000000000000000000000000000000000000001100011100010011101011000000000 '
0/
b1010111110101110101011100000000000000000000000000000000000000000 !
#99296
b1101011111010110110101100000000000000000000000000000000000000000 !
1/
b000000000000000000000000000000000000000000000000000000000000000000000000011000110100101111000110 '
1&
b000000000000000000000000000000000000000000000000000000000000000000000000011000110100101111000110 0
#102399
0&
b000000000000000000000000000000000000000000000000000000000000000001100100101111011001110100000000 '
0/
b1000111110001110100011100000000000000000000000000000000000000000 !
#105502
b1001111110011110100111100000000000000000000000000000000000000000 !
1/
b000000000000000000000000000000000000000000000000000000000000000000000000011010011000000010000011 '
1&
b000000000000000000000000000000000000000000000000000000000000000000000000011010011000000010000011 0
1.
b0000011100000110000001010000010000000011000000100000000100000000 )
#108605
0&
b000000000000000000000000000000000000000000000000000000000000000001100001011101000001111010000000 '
0/
b1010111110101110101011100000000000000000000000000000000000000000 !
#111708
b1111111111111110111111100000000000000000000000000000000000000000 !
1/
b000000000000000000000000000000000000000000000000000000000000000000000000011011111011010100111111 '
1&
b0000111100001110000011010000110000001011000010100000100100001000 )
b000000000000000000000000000000000000000000000000000000000000000000000000011011111011010100111111 0
#114811
0&
b000000000000000000000000000000000000000000000000000000000000000001100100000110110000011010000000 '
0/
b0000011100000110000001010000100000000000000000000000000000000000 !
#117914
1/
b000000000000000000000000000000000000000000000000000000000000000000000000011101011110100111111011 '
1&
b000000000000000000000000000000000000000000000000000000000000000000000000011101011110100111111011 0
b0001011100010110000101010001010000010011000100100001000100010000 )
#121017
0&
b000000000000000000000000000000000000000000000000000000000000000001100100000110001001001100000000 '
0/
#124120
1/
b000000000000000000000000000000000000000000000000000000000000000000000000011111000001111010111000 '
1&
b0001111100011110000111010001110000011011000110100001100100011000 )
b000000000000000000000000000000000000000000000000000000000000000000000000011111000001111010111000 0
b0011011100110110001101010100000000000000000000000000000000000000 !
13
b000000000000000000000000000000000000000000000000000000000000000000000000011101011110100111111011 1
#127223
b0000111100001110000011010001000000000000000000000000000000000000 !
0&
b000000000000000000000000000000000000000000000000000000000000000001100011111110000001111110000000 '
0/
#130326
1/
b000000000000000000000000000000000000000000000000000000000000000000000000100000100101001101110100 '
1&
b0000011100000110000001010000100000000000000000000000000000000000 !
03
b000000000000000000000000000000000000000000000000000000000000000000000000100000100101001101110100 0
b0010011100100110001001010010010000100011001000100010000100100000 )
#133429
b0001111100011110000111010010000000000000000000000000000000000000 !
0&
b000000000000000000000000000000000000000000000000000000000000000001100100010001100000110000000000 '
0/
#136532
1/
b000000000000000000000000000000000000000000000000000000000000000000000000100010001000100000110001 '
1&
b0000011100000110000001010000100000000000000000000000000000000000 !
b0010111100101110001011010010110000101011001010100010100100101000 )
b000000000000000000000000000000000000000000000000000000000000000000000000100010001000100000110001 0
#139635
0&
b000000000000000000000000000000000000000000000000000000000000000001100100010100010010111100000000 '
0/
#142738
1/
b000000000000000000000000000000000000000000000000000000000000000000000000100011101011110011101101 '
1&
b000000000000000000000000000000000000000000000000000000000000000000000000100011101011110011101101 0
b0011011100110110001101010011010000110011001100100011000100110000 )
#145841
0&
b000000000000000000000000000000000000000000000000000000000000000001100011001000001010001110000000 '
0/
b1101011111010110110101100000000000000000000000000000000000000000 !
#148944
b1111111111111110111111100000000000000000000000000000000000000000 !
1/
b000000000000000000000000000000000000000000000000000000000000000000000000100101001111000110101001 '
1&
b0110111110110000000010100011110000111011001110100011100100111000 )
b000000000000000000000000000000000000000000000000000000000000000000000000100101001111000110101001 0
#152047
0&
b000000000000000000000000000000000000000000000000000000000000000001100010101100001010000010000000 '
0/
b1110011111100110111001100000000000000000000000000000000000000000 !
#155150
b1100011111000110110001100000000000000000000000000000000000000000 !
1/
b000000000000000000000000000000000000000000000000000000000000000000000000100110110010011001100110 '
1&
b000000000000000000000000000000000000000000000000000000000000000000000000100110110010011001100110 0
b0000000000000000000000000000000000000000000000000000000010111010 )
1+
b00000001 *
#158253
0&
b000000000000000000000000000000000000000000000000000000000000000001100010101010100110101110000000 '
0/
b1100111111001110110011100000000000000000000000000000000000000000 !
#161356
b1111111111111110111111100000000000000000000000000000000000000000 !
1/
b000000000000000000000000000000000000000000000000000000000000000000000000101000010101101100100010 '
1&
0+
b000000000000000000000000000000000000000000000000000000000000000000000000101000010101101100100010 0
0.
#164459
0&
b000000000000000000000000000000000000000000000000000000000000000001100011010011111111110010000000 '
0/
b0001011100010110000101010010000000000000000000000000000000000000 !
#167562
b1111011111110110111101100000000000000000000000000000000000000000 !
1/
b000000000000000000000000000000000000000000000000000000000000000000000000101001111000111111011111 '
1&
b000000000000000000000000000000000000000000000000000000000000000000000000101001111000111111011111 0
#170665
0&
b000000000000000000000000000000000000000000000000000000000000000001100011110001000100100100000000 '
0/
b1111111111111110111111100000000000000000000000000000000000000000 !
#173768
b1011111110111110101111100000000000000000000000000000000000000000 !
1/
b000000000000000000000000000000000000000000000000000000000000000000000000101011011100010010011011 '
1&
b000000000000000000000000000000000000000000000000000000000000000000000000101011011100010010011011 0
1.
b11111111 *
b0000011100000110000001010000010000000011000000100000000100000000 )
#176871
0&
b000000000000000000000000000000000000000000000000000000000000000001100100000111101100011110000000 '
0/
b1111111111111110111111100000000000000000000000000000000000000000 !
#179974
1/
b000000000000000000000000000000000000000000000000000000000000000000000000101100111111100101011000 '
1&
b0000111100001110000011010000110000001011000010100000100100001000 )
b000000000000000000000000000000000000000000000000000000000000000000000000101100111111100101011000 0
0%
#183077
1%
0&
b000000000000000000000000000000000000000000000000000000000000000001100101101111001110100000000000 '
0/
b1100111111001110110011100000000000000000000000000000000000000000 !
#186180
b1101011111010110110101100000000000000000000000000000000000000000 !
1/
b000000000000000000000000000000000000000000000000000000000000000000000000101110100010111000010100 '
1&
b000000000000000000000000000000000000000000000000000000000000000000000000101110100010111000010100 0
b0001011100010110000101010001010000010011000100100001000100010000 )
#189283
0&
b000000000000000000000000000000000000000000000000000000000000000001100100011010010100000010000000 '
0/
#192386
1/
b000000000000000000000000000000000000000000000000000000000000000000000000110000000110001011010000 '
1&
b0001111100011110000111010001110000011011000110100001100100011000 )
b000000000000000000000000000000000000000000000000000000000000000000000000110000000110001011010000 0
b1110011111100110111001100000000000000000000000000000000000000000 !
13
b000000000000000000000000000000000000000000000000000000000000000000000000101110100010111000010100 1
#195489
0&
b000000000000000000000000000000000000000000000000000000000000000001100011101001000101000110000000 '
0/
#198592
1/
b000000000000000000000000000000000000000000000000000000000000000000000000110001101001011110001101 '
1&
03
b000000000000000000000000000000000000000000000000000000000000000000000000110001101001011110001101 0
b0010011100100110001001010010010000100011001000100010000100100000 )
#201695
0&
b000000000000000000000000000000000000000000000000000000000000000001100011000111101100100110000000 '
0/
b1110111111101110111011100000000000000000000000000000000000000000 !
#204798
b1111111111111110111111100000000000000000000000000000000000000000 !
1/
b000000000000000000000000000000000000000000000000000000000000000000000000110011001100110001001001 '
1&
b0010111100101110001011010010110000101011001010100010100100101000 )
b000000000000000000000000000000000000000000000000000000000000000000000000110011001100110001001001 0
#207901
0&
b000000000000000000000000000000000000000000000000000000000000000001100001110010111110000000000000 '
0/
b1101111111011110110111100000000000000000000000000000000000000000 !
#211004
b0011111100111110001111010100000000000000000000000000000000000000 !
1/
b000000000000000000000000000000000000000000000000000000000000000000000000110100110000000100000110 '
1&
b000000000000000000000000000000000000000000000000000000000000000000000000110100110000000100000110 0
b0011011100110110001101010011010000110011001100100011000100110000 )
#214107
0&
b000000000000000000000000000000000000000000000000000000000000000001100011010100011111101110000000 '
0/
b1101011111010110110101100000000000000000000000000000000000000000 !
#217210
b1001111110011110100111100000000000000000000000000000000000000000 !
1/
b000000000000000000000000000000000000000000000000000000000000000000000000110110010011010111000010 '
1&
b0010010100110010001111010011110000111011001110100011100100111000 )
b000000000000000000000000000000000000000000000000000000000000000000000000110110010011010111000010 0
#220313
0&
b000000000000000000000000000000000000000000000000000000000000000001100010010111100110000100000000 '
0/
b0110111101101110011011011000000000000000000000000000000000000000 !
#223416
b0101111101011110010111011000000000000000000000000000000000000000 !
1/
b000000000000000000000000000000000000000000000000000000000000000000000000110111110110101001111110 '
1&
b000000000000000000000000000000000000000000000000000000000000000000000000110111110110101001111110 0
b0000000000000000000000000000000000000000000000000110101000000101 )
b00000011 *
1+
#226519
0&
b000000000000000000000000000000000000000000000000000000000000000001100011000101000111110110000000 '
0/
b1000111110001110100011100000000000000000000000000000000000000000 !
#229622
b1010011110100110101001100000000000000000000000000000000000000000 !
1/
b000000000000000000000000000000000000000000000000000000000000000000000000111001011001111100111011 '
1&
0+
b000000000000000000000000000000000000000000000000000000000000000000000000111001011001111100111011 0
0.
#232725
0&
b000000000000000000000000000000000000000000000000000000000000000001100011000100101011101110000000 '
0/
b0100011101000110010001011000000000000000000000000000000000000000 !
#235828
b1010111110101110101011100000000000000000000000000000000000000000 !
1/
b000000000000000000000000000000000000000000000000000000000000000000000000111010111101001111110111 '
1&
b000000000000000000000000000000000000000000000000000000000000000000000000111010111101001111110111 0
#238931
0&
b000000000000000000000000000000000000000000000000000000000000000001100011110101001100000000000000 '
0/
b1000011110000110100001100000000000000000000000000000000000000000 !
#242034
b1001011110010110100101100000000000000000000000000000000000000000 !
1/
b000000000000000000000000000000000000000000000000000000000000000000000000111100100000100010110100 '
1&
b000000000000000000000000000000000000000000000000000000000000000000000000111100100000100010110100 0
1.
b11111111 *
b0000011100000110000001010000010000000011000000100000000100000000 )
#245137
0&
b000000000000000000000000000000000000000000000000000000000000000001100001011000000011011000000000 '
0/
b1010111110101110101011100000000000000000000000000000000000000000 !
#248240
b1111111111111110111111100000000000000000000000000000000000000000 !
1/
b000000000000000000000000000000000000000000000000000000000000000000000000111110000011110101110000 '
1&
b0000111100001110000011010000110000001011000010100000100100001000 )
b000000000000000000000000000000000000000000000000000000000000000000000000111110000011110101110000 0
#251343
0&
b000000000000000000000000000000000000000000000000000000000000000001100001010010001010110110000000 '
0/
0%
#254446
1%
1/
b000000000000000000000000000000000000000000000000000000000000000000000000111111100111001000101101 '
1&
b000000000000000000000000000000000000000000000000000000000000000000000000111111100111001000101101 0
b0001011100010110000101010001010000010011000100100001000100010000 )
b1101111111011110110111100000000000000000000000000000000000000000 !
#257549
b1110111111101110111011100000000000000000000000000000000000000000 !
0&
b000000000000000000000000000000000000000000000000000000000000000001100011110010000110111100000000 '
0/
#260652
1/
b000000000000000000000000000000000000000000000000000000000000000000000001000001001010011011101001 '
1&
b1111111111111110111111100000000000000000000000000000000000000000 !
b0001111100011110000111010001110000011011000110100001100100011000 )
b000000000000000000000000000000000000000000000000000000000000000000000001000001001010011011101001 0
13
b000000000000000000000000000000000000000000000000000000000000000000000000111111100111001000101101 1
#263755
0&
b000000000000000000000000000000000000000000000000000000000000000001100011001110111101110000000000 '
0/
#266858
1/
b000000000000000000000000000000000000000000000000000000000000000000000001000010101101101110100101 '
1&
03
b000000000000000000000000000000000000000000000000000000000000000000000001000010101101101110100101 0
b0010011100100110001001010010010000100011001000100010000100100000 )
#269961
0&
b000000000000000000000000000000000000000000000000000000000000000001100010100111100000001000000000 '
0/
#273064
1/
b000000000000000000000000000000000000000000000000000000000000000000000001000100010001000001100010 '
1&
b0010111100101110001011010010110000101011001010100010100100101000 )
b000000000000000000000000000000000000000000000000000000000000000000000001000100010001000001100010 0
b1100011111000110110001100000000000000000000000000000000000000000 !
#276167
b0000011100000110000001010000100000000000000000000000000000000000 !
0&
b000000000000000000000000000000000000000000000000000000000000000001100010100010110111100000000000 '
0/
#279270
1/
b000000000000000000000000000000000000000000000000000000000000000000000001000101110100010100011110 '
1&
b0000111100001110000011010001000000000000000000000000000000000000 !
b000000000000000000000000000000000000000000000000000000000000000000000001000101110100010100011110 0
b0011011100110110001101010011010000110011001100100011000100110000 )
#282373
b0011100000010001100001100000000000000000000000000000000000000000 !
0&
b000000000000000000000000000000000000000000000000000000000000000001100001111010100000100010000000 '
0/
#285476
1/
b000000000000000000000000000000000000000000000000000000000000000000000001000111010111100111011011 '
1&
b0100111101001110010011011000000000000000000000000000000000000000 !
b1000001100111110001111010011110000111011001110100011100100111000 )
b000000000000000000000000000000000000000000000000000000000000000000000001000111010111100111011011 0
#288579
b0010111100101110001011010100000000000000000000000000000000000000 !
0&
b000000000000000000000000000000000000000000000000000000000000000001100001111101001010101110000000 '
0/
#291682
1/
b000000000000000000000000000000000000000000000000000000000000000000000001001000111010111010010111 '
1&
b000000000000000000000000000000000000000000000000000000000000000000000001001000111010111010010111 0
b0000000000000000000000000000000000000000110110111101111010100110 )
b00000111 *
1+
#294785
0&
b000000000000000000000000000000000000000000000000000000000000000001100011010110000011000000000000 '
0/
b0111011101110110011101011000000000000000000000000000000000000000 !
#297888
b0101111101011110010111011000000000000000000000000000000000000000 !
1/
b000000000000000000000000000000000000000000000000000000000000000000000001001010011110001101010011 '
1&
0+
b000000000000000000000000000000000000000000000000000000000000000000000001001010011110001101010011 0
0.
#300991
0&
b000000000000000000000000000000000000000000000000000000000000000001100001011001111011010100000000 '
0/
b1000111110001110100011100000000000000000000000000000000000000000 !
#304094
b1101111111011110110111100000000000000000000000000000000000000000 !
1/
b000000000000000000000000000000000000000000000000000000000000000000000001001100000001100000010000 '
1&
b000000000000000000000000000000000000000000000000000000000000000000000001001100000001100000010000 0
#307197
0&
b000000000000000000000000000000000000000000000000000000000000000001100010000100100110000100000000 '
0/
b1110111111101110111011100000000000000000000000000000000000000000 !
#310300
b1110011111100110111001100000000000000000000000000000000000000000 !
1/
b000000000000000000000000000000000000000000000000000000000000000000000001001101100100110011001100 '
1&
b000000000000000000000000000000000000000000000000000000000000000000000001001101100100110011001100 0
1.
b11111111 *
b0000011100000110000001010000010000000011000000100000000100000000 )
#313403
0&
b000000000000000000000000000000000000000000000000000000000000000001100101011101000001110000000000 '
0/
b1111011111110110111101100000000000000000000000000000000000000000 !
#316506
b1111111111111110111111100000000000000000000000000000000000000000 !
1/
b000000000000000000000000000000000000000000000000000000000000000000000001001111001000000110001001 '
1&
b0000111100001110000011010000110000001011000010100000100100001000 )
b000000000000000000000000000000000000000000000000000000000000000000000001001111001000000110001001 0
#319609
0&
b000000000000000000000000000000000000000000000000000000000000000001100100001011000001101010000000 '
0/
b0000011100000110000001010000100000000000000000000000000000000000 !
#322712
1/
b000000000000000000000000000000000000000000000000000000000000000000000001010000101011011001000101 '
1&
b000000000000000000000000000000000000000000000000000000000000000000000001010000101011011001000101 0
b0001011100010110000101010001010000010011000100100001000100010000 )
#325815
0&
b000000000000000000000000000000000000000000000000000000000000000001100100010110110101110000000000 '
0/
#328918
1/
b000000000000000000000000000000000000000000000000000000000000000000000001010010001110101100000010 '
1&
b0001111100011110000111010001110000011011000110100001100100011000 )
b000000000000000000000000000000000000000000000000000000000000000000000001010010001110101100000010 0
13
b000000000000000000000000000000000000000000000000000000000000000000000001010000101011011001000101 1
#332021
0&
b000000000000000000000000000000000000000000000000000000000000000001100100001100010110011000000000 '
0/
b0001011100010110000101010010000000000000000000000000000000000000 !
#335124
b0010111100101110001011010100000000000000000000000000000000000000 !
1/
b000000000000000000000000000000000000000000000000000000000000000000000001010011110001111110111110 '
1&
03
b000000000000000000000000000000000000000000000000000000000000000000000001010011110001111110111110 0
b0010011100100110001001010010010000100011001000100010000100100000 )
#338227
0&
b000000000000000000000000000000000000000000000000000000000000000001100100001010110011000100000000 '
0/
b0000011100000110000001010000100000000000000000000000000000000000 !
#341330
1/
b000000000000000000000000000000000000000000000000000000000000000000000001010101010101010001111010 '
1&
b0010111100101110001011010010110000101011001010100010100100101000 )
b000000000000000000000000000000000000000000000000000000000000000000000001010101010101010001111010 0
#344433
0&
b000000000000000000000000000000000000000000000000000000000000000001100100011110111101111010000000 '
0/
b0001011100010110000101010010000000000000000000000000000000000000 !
#347536
b0000011100000110000001010000100000000000000000000000000000000000 !
1/
b000000000000000000000000000000000000000000000000000000000000000000000001010110111000100100110111 '
1&
b000000000000000000000000000000000000000000000000000000000000000000000001010110111000100100110111 0
b0011011100110110001101010011010000110011001100100011000100110000 )
#350639
0&
b000000000000000000000000000000000000000000000000000000000000000001100100100100101111000010000000 '
0/
#353742
1/
b000000000000000000000000000000000000000000000000000000000000000000000001011000011011110111110011 '
1&
b0011111100111110001111010011110000111011001110100011100100111000 )
b000000000000000000000000000000000000000000000000000000000000000000000001011000011011110111110011 0
#356845
0&
b000000000000000000000000000000000000000000000000000000000000000001100011111001110100001100000000 '
0/
b1110111111101110111011100000000000000000000000000000000000000000 !
#359948
b1111111111111110111111100000000000000000000000000000000000000000 !
1/
b000000000000000000000000000000000000000000000000000000000000000000000001011001111111001010110000 '
1&
b000000000000000000000000000000000000000000000000000000000000000000000001011001111111001010110000 0
b0000000000000000000000000000000000010000000011101100111010001100 )
b00001111 *
1+
#363051
0&
b000000000000000000000000000000000000000000000000000000000000000001100010101101100111111010000000 '
0/
b1110011111100110111001100000000000000000000000000000000000000000 !
#366154
1/
b000000000000000000000000000000000000000000000000000000000000000000000001011011100010011101101100 '
1&
0+
b000000000000000000000000000000000000000000000000000000000000000000000001011011100010011101101100 0
0.
#369257
0&
b000000000000000000000000000000000000000000000000000000000000000001100010101111010000100110000000 '
0/
b1101111111011110110111100000000000000000000000000000000000000000 !
#372360
b1111111111111110111111100000000000000000000000000000000000000000 !
1/
b000000000000000000000000000000000000000000000000000000000000000000000001011101000101110000101000 '
1&
b000000000000000000000000000000000000000000000000000000000000000000000001011101000101110000101000 0
#375463
0&
b000000000000000000000000000000000000000000000000000000000000000001100100111100011100100010000000 '
0/
b0011011100110110001101010100000000000000000000000000000000000000 !
#378566
b0001110101111100011001000100000000000000000000000000000000000000 !
1/
b000000000000000000000000000000000000000000000000000000000000000000000001011110101001000011100101 '
1&
b000000000000000000000000000000000000000000000000000000000000000000000001011110101001000011100101 0
#381669
0&
b000000000000000000000000000000000000000000000000000000000000000001100011111101010001011100000000 '
0/
b0000011100000110000001010000100000000000000000000000000000000000 !
#384772
1/
b000000000000000000000000000000000000000000000000000000000000000000000001100000001100010110100001 '
1&
b000000000000000000000000000000000000000000000000000000000000000000000001100000001100010110100001 0
1.
b11111111 *
b0000011100000110000001010000010000000011000000100000000100000000 )
#387875
0&
b000000000000000000000000000000000000000000000000000000000000000001100011111111111100000000000000 '
0/
#390978
1/
b000000000000000000000000000000000000000000000000000000000000000000000001100001101111101001011110 '
1&
b0000111100001110000011010000110000001011000010100000100100001000 )
b000000000000000000000000000000000000000000000000000000000000000000000001100001101111101001011110 0
#394081
0&
b000000000000000000000000000000000000000000000000000000000000000001100100000110110000011010000000 '
0/
#397184
1/
b000000000000000000000000000000000000000000000000000000000000000000000001100011010010111100011010 '
1&
b000000000000000000000000000000000000000000000000000000000000000000000001100011010010111100011010 0
b0001011100010110000101010001010000010011000100100001000100010000 )
#400287
0&
b000000000000000000000000000000000000000000000000000000000000000001100100000110001001001100000000 '
0/
#403390
1/
b000000000000000000000000000000000000000000000000000000000000000000000001100100110110001111010111 '
1&
b0001111100011110000111010001110000011011000110100001100100011000 )
b000000000000000000000000000000000000000000000000000000000000000000000001100100110110001111010111 0
b0011011100110110001101010100000000000000000000000000000000000000 !
13
b000000000000000000000000000000000000000000000000000000000000000000000001100011010010111100011010 1
#406493
b0000111100001110000011010001000000000000000000000000000000000000 !
0&
b000000000000000000000000000000000000000000000000000000000000000001100011111110000001111110000000 '
0/
#409596
1/
b000000000000000000000000000000000000000000000000000000000000000000000001100110011001100010010011 '
1&
b0000011100000110000001010000100000000000000000000000000000000000 !
03
b000000000000000000000000000000000000000000000000000000000000000000000001100110011001100010010011 0
b0010011100100110001001010010010000100011001000100010000100100000 )
#412699
b0001111100011110000111010010000000000000000000000000000000000000 !
0&
b000000000000000000000000000000000000000000000000000000000000000001100100010001100000110000000000 '
0/
#415802
1/
b000000000000000000000000000000000000000000000000000000000000000000000001100111111100110101001111 '
1&
b0000011100000110000001010000100000000000000000000000000000000000 !
b0010111100101110001011010010110000101011001010100010100100101000 )
b000000000000000000000000000000000000000000000000000000000000000000000001100111111100110101001111 0
#418905
0&
b000000000000000000000000000000000000000000000000000000000000000001100100010100010010111100000000 '
0/
#422008
1/
b000000000000000000000000000000000000000000000000000000000000000000000001101001100000001000001100 '
1&
b000000000000000000000000000000000000000000000000000000000000000000000001101001100000001000001100 0
b0011011100110110001101010011010000110011001100100011000100110000 )
#425111
0&
b000000000000000000000000000000000000000000000000000000000000000001100011001000001010001110000000 '
0/
b1101011111010110110101100000000000000000000000000000000000000000 !
#428214
b1111111111111110111111100000000000000000000000000000000000000000 !
1/
b000000000000000000000000000000000000000000000000000000000000000000000001101011000011011011001000 '
1&
b0011111100111110001111010011110000111011001110100011100100111000 )
b000000000000000000000000000000000000000000000000000000000000000000000001101011000011011011001000 0
#431317
0&
b000000000000000000000000000000000000000000000000000000000000000001100010101100001010000010000000 '
0/
b1110011111100110111001100000000000000000000000000000000000000000 !
#434420
b1100011111000110110001100000000000000000000000000000000000000000 !
1/
b000000000000000000000000000000000000000000000000000000000000000000000001101100100110101110000101 '
1&
b000000000000000000000000000000000000000000000000000000000000000000000001101100100110101110000101 0
b0000000000000000000000000100000011000000011011111101100001000000 )
b00011111 *
1+
#437523
0&
b000000000000000000000000000000000000000000000000000000000000000001100010101010100110101110000000 '
0/
b1100111111001110110011100000000000000000000000000000000000000000 !
#440626
b1111111111111110111111100000000000000000000000000000000000000000 !
1/
b000000000000000000000000000000000000000000000000000000000000000000000001101110001010000001000001 '
1&
0+
b000000000000000000000000000000000000000000000000000000000000000000000001101110001010000001000001 0
0.
#443729
0&
b000000000000000000000000000000000000000000000000000000000000000001100011110110111100011000000000 '
0/
b0010111100101110001011010100000000000000000000000000000000000000 !
#446832
b0011011100110110001101010100000000000000000000000000000000000000 !
1/
b000000000000000000000000000000000000000000000000000000000000000000000001101111101101010011111101 '
1&
b000000000000000000000000000000000000000000000000000000000000000000000001101111101101010011111101 0
#449935
0&
b000000000000000000000000000000000000000000000000000000000000000001100100111100011100100010000000 '
0/
#453038
1/
b000000000000000000000000000000000000000000000000000000000000000000000001110001010000100110111010 '
1&
b000000000000000000000000000000000000000000000000000000000000000000000001110001010000100110111010 0
b0001110101111100011001000100000000000000000000000000000000000000 !
1.
b11111111 *
b0000011100000110000001010000010000000011000000100000000100000000 )
#456141
b0000011100000110000001010000100000000000000000000000000000000000 !
0&
b000000000000000000000000000000000000000000000000000000000000000001100011111101010001011100000000 '
0/
#459244
1/
b000000000000000000000000000000000000000000000000000000000000000000000001110010110011111001110110 '
1&
b0000111100001110000011010000110000001011000010100000100100001000 )
b000000000000000000000000000000000000000000000000000000000000000000000001110010110011111001110110 0
